[
    {
      "id": 1,
      "nombre": "John Doe",
      "cargo": "Gerente de Recursos Humanos",
      "departamento": "Recursos Humanos",
      "correo": "john.doe@example.com",
      "telefono": "1234567890"
    },
    {
      "id": 2,
      "nombre": "Jane Smith",
      "cargo": "Analista de Reclutamiento",
      "departamento": "Recursos Humanos",
      "correo": "jane.smith@example.com",
      "telefono": "9876543210"
    },
    {
      "id": 3,
      "nombre": "Robert Johnson",
      "cargo": "Especialista de Capacitación",
      "departamento": "Recursos Humanos",
      "correo": "robert.johnson@example.com",
      "telefono": "4567891230"
    }
  ]
